<?xml version="1.0" encoding="UTF-8"?>
<svg width="375px" height="86px" viewBox="0 -1 375 86" xmlns="http://www.w3.org/2000/svg" xmlns:xlink="http://www.w3.org/1999/xlink" version="1.1">
 <!-- Generated by Pixelmator Pro 2.1.2 -->
 <g id="New-Group">
  <path id="path9-3" d="M27.844 55.828 Q15.688 55.828 7.844 48.078 0 40.313 0 28.234 0 16.234 7.844 8.438 15.688 0.641 27.844 0.641 40.078 0.641 47.922 8.438 55.766 16.234 55.766 28.234 55.766 39.672 48.797 47.109 L52.719 51.672 44.797 58.156 40.484 53.188 Q34.719 55.828 27.844 55.828 Z M27.844 45.75 Q30.641 45.75 33.438 44.875 L27.594 38 35.438 31.516 41.359 38.469 Q44.078 34 44.078 28.234 44.078 20.641 39.641 15.688 35.203 10.719 27.844 10.719 20.484 10.719 16.078 15.688 11.688 20.641 11.688 28.234 11.688 35.922 16.156 40.844 20.641 45.75 27.844 45.75 Z M89.606 54.875 L89.606 50 Q84.403 55.828 75.997 55.828 69.606 55.828 66.559 52.594 63.528 49.359 63.528 43.672 L63.528 16.234 73.684 16.234 73.684 39.672 Q73.684 46.797 80.794 46.797 85.997 46.797 89.606 42.391 L89.606 16.234 99.762 16.234 99.762 54.875 Z M133.036 54.875 L133.036 50.875 Q128.801 55.828 120.801 55.828 115.207 55.828 111.286 52.281 107.364 48.719 107.364 43.031 107.364 37.359 111.082 33.969 114.801 30.563 120.801 30.563 129.114 30.563 133.036 35.281 L133.036 30.078 Q133.036 27.109 130.707 25.359 128.395 23.594 124.567 23.594 118.161 23.594 113.286 28.156 L109.442 21.359 Q116.489 15.281 126.317 15.281 134.489 15.281 138.848 19.078 143.207 22.875 143.207 29.922 L143.207 54.875 Z M124.879 48.953 Q130.489 48.953 133.036 45.594 L133.036 40.797 Q130.489 37.438 124.879 37.438 121.848 37.438 119.723 38.953 117.598 40.469 117.598 43.281 117.598 46 119.723 47.484 121.848 48.953 124.879 48.953 Z M153.288 54.875 L153.288 1.516 163.444 1.516 163.444 54.875 Z M178.559 12.078 Q176.075 12.078 174.278 10.328 172.481 8.563 172.481 6 172.481 3.438 174.278 1.719 176.075 0 178.559 0 181.122 0 182.872 1.719 184.637 3.438 184.637 6 184.637 8.563 182.872 10.328 181.122 12.078 178.559 12.078 Z M173.528 54.875 L173.528 16.234 183.684 16.234 183.684 54.875 Z" fill="#003b77" fill-opacity="1" stroke="none"/>
  <path id="path11-9" d="M194.002 54.875 L194.002 1.516 215.034 1.516 Q227.674 1.516 235.518 8.875 243.362 16.234 243.362 28.234 243.362 40.156 235.518 47.516 227.674 54.875 215.034 54.875 Z M215.034 44.875 Q222.487 44.875 227.127 40.203 231.768 35.516 231.768 28.234 231.768 20.641 227.315 16.078 222.877 11.516 215.034 11.516 L205.362 11.516 205.362 44.875 Z M251.442 54.875 L251.442 1.516 262.802 1.516 262.802 54.875 Z M310.159 54.875 L306.878 45.828 284.003 45.828 280.643 54.875 267.675 54.875 288.315 1.516 302.565 1.516 323.128 54.875 Z M295.44 12.875 L287.128 35.828 303.768 35.828 Z M351.206 55.922 Q339.034 55.922 330.909 48.156 322.8 40.391 322.8 28.234 322.8 16.078 330.831 8.359 338.878 0.641 351.206 0.641 365.768 0.641 373.284 12.562 L363.847 17.672 Q362.003 14.875 358.753 12.797 355.518 10.719 351.206 10.719 343.925 10.719 339.206 15.719 334.487 20.719 334.487 28.234 334.487 36 339.284 40.875 344.081 45.75 351.206 45.75 354.8 45.75 357.878 44.469 360.956 43.187 362.565 41.672 L362.565 35.281 348.487 35.281 348.487 25.359 373.925 25.359 373.925 45.828 Q364.878 55.922 351.206 55.922 Z" fill="#fecb00" fill-opacity="1" stroke="none"/>
  <path id="path15-8" d="M25.43 84.505 L25.43 67.614 31.711 67.614 Q35.696 67.614 38.118 70.005 40.555 72.38 40.555 76.067 40.555 79.77 38.118 82.145 35.696 84.505 31.711 84.505 Z M31.711 81.895 Q34.368 81.895 35.93 80.255 37.508 78.598 37.508 76.067 37.508 73.442 35.93 71.833 34.352 70.223 31.711 70.223 L28.399 70.223 28.399 81.895 Z M43.413 84.505 L43.413 67.614 46.382 67.614 46.382 84.505 Z M61.801 84.505 L60.567 81.27 52.817 81.27 51.567 84.505 48.208 84.505 54.833 67.614 58.536 67.614 65.176 84.505 Z M56.692 70.598 L53.645 78.661 59.723 78.661 Z M74.242 84.833 Q70.382 84.833 67.867 82.348 65.367 79.864 65.367 76.067 65.367 72.239 67.867 69.786 70.382 67.333 74.242 67.333 78.617 67.333 81.054 70.848 L78.617 72.223 Q77.961 71.255 76.82 70.614 75.679 69.973 74.242 69.973 71.711 69.973 70.054 71.708 68.414 73.442 68.414 76.067 68.414 78.677 70.054 80.442 71.711 82.192 74.242 82.192 75.523 82.192 76.586 81.708 77.664 81.208 78.242 80.677 L78.242 78.052 73.195 78.052 73.195 75.442 81.211 75.442 81.211 81.77 Q78.414 84.833 74.242 84.833 Z M96.074 84.505 L87.261 72.442 87.261 84.505 84.293 84.505 84.293 67.614 87.34 67.614 95.965 79.333 95.965 67.614 98.933 67.614 98.933 84.505 Z M110.404 84.802 Q106.654 84.802 104.201 82.348 101.763 79.895 101.763 76.067 101.763 72.223 104.216 69.786 106.685 67.333 110.404 67.333 114.154 67.333 116.591 69.786 119.045 72.239 119.045 76.067 119.045 79.927 116.591 82.364 114.138 84.802 110.404 84.802 Z M110.404 82.177 Q112.857 82.177 114.42 80.489 115.998 78.786 115.998 76.067 115.998 73.333 114.42 71.661 112.841 69.973 110.404 69.973 107.951 69.973 106.373 71.677 104.81 73.364 104.81 76.067 104.81 78.802 106.388 80.489 107.982 82.177 110.404 82.177 Z M127.686 84.802 Q123.327 84.802 120.811 82.13 L122.467 79.848 Q124.671 82.177 127.811 82.177 129.374 82.177 130.28 81.536 131.202 80.88 131.202 79.864 131.202 79.036 130.436 78.489 129.686 77.927 128.092 77.536 124.874 76.786 123.702 76.161 122.546 75.52 121.936 74.567 121.342 73.614 121.342 72.302 121.342 70.177 123.061 68.77 124.796 67.364 127.499 67.364 131.374 67.364 133.842 69.708 L132.139 71.911 Q130.217 69.989 127.249 69.989 125.936 69.989 125.155 70.567 124.389 71.13 124.389 72.098 124.389 72.927 125.342 73.427 126.311 73.911 129.296 74.645 131.702 75.255 132.952 76.473 134.217 77.692 134.217 79.598 134.217 81.973 132.483 83.395 130.764 84.802 127.686 84.802 Z M140.728 84.505 L140.728 70.223 135.603 70.223 135.603 67.614 148.806 67.614 148.806 70.223 143.681 70.223 143.681 84.505 Z M151.311 84.505 L151.311 67.614 154.28 67.614 154.28 84.505 Z M165.98 84.802 Q162.121 84.802 159.605 82.333 157.105 79.848 157.105 76.067 157.105 72.27 159.605 69.802 162.105 67.333 165.98 67.333 170.355 67.333 172.762 71.13 L170.23 72.427 Q169.621 71.364 168.48 70.677 167.34 69.973 165.98 69.973 163.449 69.973 161.793 71.708 160.152 73.442 160.152 76.067 160.152 78.708 161.777 80.442 163.418 82.177 165.98 82.177 167.34 82.177 168.48 81.489 169.621 80.786 170.23 79.723 L172.762 81.005 Q170.355 84.802 165.98 84.802 Z M180.926 84.802 Q176.567 84.802 174.051 82.13 L175.707 79.848 Q177.91 82.177 181.051 82.177 182.613 82.177 183.52 81.536 184.442 80.88 184.442 79.864 184.442 79.036 183.676 78.489 182.926 77.927 181.332 77.536 178.113 76.786 176.942 76.161 175.785 75.52 175.176 74.567 174.582 73.614 174.582 72.302 174.582 70.177 176.301 68.77 178.035 67.364 180.738 67.364 184.613 67.364 187.082 69.708 L185.379 71.911 Q183.457 69.989 180.488 69.989 179.176 69.989 178.395 70.567 177.629 71.13 177.629 72.098 177.629 72.927 178.582 73.427 179.551 73.911 182.535 74.645 184.942 75.255 186.192 76.473 187.457 77.692 187.457 79.598 187.457 81.973 185.723 83.395 184.004 84.802 180.926 84.802 Z M196.699 84.505 L196.699 67.614 199.668 67.614 199.668 84.505 Z M217.853 84.505 L217.853 71.973 212.65 84.505 211.384 84.505 206.228 71.973 206.228 84.505 203.259 84.505 203.259 67.614 207.446 67.614 212.025 78.723 216.634 67.614 220.806 67.614 220.806 84.505 Z M239.002 84.505 L239.002 71.973 233.799 84.505 232.533 84.505 227.377 71.973 227.377 84.505 224.408 84.505 224.408 67.614 228.596 67.614 233.174 78.723 237.783 67.614 241.955 67.614 241.955 84.505 Z M253.432 84.802 Q249.682 84.802 247.229 82.348 244.791 79.895 244.791 76.067 244.791 72.223 247.245 69.786 249.713 67.333 253.432 67.333 257.182 67.333 259.62 69.786 262.073 72.239 262.073 76.067 262.073 79.927 259.62 82.364 257.166 84.802 253.432 84.802 Z M253.432 82.177 Q255.885 82.177 257.448 80.489 259.026 78.786 259.026 76.067 259.026 73.333 257.448 71.661 255.87 69.973 253.432 69.973 250.979 69.973 249.401 71.677 247.838 73.364 247.838 76.067 247.838 78.802 249.416 80.489 251.01 82.177 253.432 82.177 Z M264.933 84.505 L264.933 67.614 273.246 67.614 Q275.417 67.614 276.73 68.817 278.058 70.02 278.058 71.911 278.058 73.38 277.246 74.458 276.433 75.52 275.121 75.786 276.48 75.989 277.433 77.192 278.386 78.395 278.386 79.942 278.386 82.067 277.042 83.286 275.699 84.505 273.464 84.505 Z M272.636 74.598 Q273.777 74.598 274.386 73.989 275.011 73.38 275.011 72.427 275.011 71.458 274.386 70.848 273.777 70.223 272.636 70.223 L267.902 70.223 267.902 74.598 Z M272.761 81.895 Q273.98 81.895 274.652 81.286 275.339 80.661 275.339 79.536 275.339 78.583 274.699 77.895 274.058 77.208 272.761 77.208 L267.902 77.208 267.902 81.895 Z M281.346 84.505 L281.346 67.614 284.314 67.614 284.314 84.505 Z M287.906 84.505 L287.906 67.614 290.874 67.614 290.874 81.895 298.312 81.895 298.312 84.505 Z M301 84.505 L301 67.614 303.969 67.614 303.969 84.505 Z M307.56 84.505 L307.56 67.614 319.138 67.614 319.138 70.223 310.529 70.223 310.529 74.598 318.967 74.598 318.967 77.208 310.529 77.208 310.529 81.895 319.138 81.895 319.138 84.505 Z M331.831 84.505 L328.081 78.192 325.143 78.192 325.143 84.505 322.175 84.505 322.175 67.614 329.597 67.614 Q332.05 67.614 333.581 69.067 335.112 70.52 335.112 72.911 335.112 74.848 334.018 76.208 332.94 77.567 331.112 77.864 L335.253 84.505 Z M329.19 75.583 Q330.456 75.583 331.268 74.848 332.081 74.114 332.081 72.911 332.081 71.692 331.268 70.958 330.456 70.223 329.19 70.223 L325.143 70.223 325.143 75.583 Z M343.862 84.802 Q339.503 84.802 336.987 82.13 L338.643 79.848 Q340.846 82.177 343.987 82.177 345.55 82.177 346.456 81.536 347.378 80.88 347.378 79.864 347.378 79.036 346.612 78.489 345.862 77.927 344.268 77.536 341.05 76.786 339.878 76.161 338.721 75.52 338.112 74.567 337.518 73.614 337.518 72.302 337.518 70.177 339.237 68.77 340.971 67.364 343.675 67.364 347.55 67.364 350.018 69.708 L348.315 71.911 Q346.393 69.989 343.425 69.989 342.112 69.989 341.331 70.567 340.565 71.13 340.565 72.098 340.565 72.927 341.518 73.427 342.487 73.911 345.471 74.645 347.878 75.255 349.128 76.473 350.393 77.692 350.393 79.598 350.393 81.973 348.659 83.395 346.94 84.802 343.862 84.802 Z" fill="#999999" fill-opacity="1" stroke="none"/>
 </g>
<script xmlns="" id="bw-fido2-page-script"/></svg>